Wed Sep  4 16:52:24 CEST 2019
Preloading tcmalloc_minimal.so
Py:Athena            INFO including file "AthenaCommon/Preparation.py"
Py:Athena            INFO using release [WorkDir-22.0.5] [x86_64-centos7-gcc8-opt] [dvbase.AthContainers-20190902/498e6d57a471] -- built on [2019-09-04T1645]
Py:Athena            INFO including file "AthenaCommon/Atlas.UnixStandardJob.py"
Py:Athena            INFO executing ROOT6Setup
Py:Athena            INFO including file "AthenaCommon/Execution.py"
Py:Athena            INFO including file "AthExStoreGateExample/StoreGateExample_Reentrant_jobOptions.py"
Py:ConfigurableDb    INFO Read module info for 5534 configurables from 10 genConfDb files
Py:ConfigurableDb    INFO No duplicates have been found: that's good !
Py:Athena            INFO including file "AthenaCommon/runbatch.py"
ApplicationMgr       INFO Updating Gaudi::PluginService::SetDebug(level) to level= 'PluginDebugLevel':0
ApplicationMgr       INFO Updating Gaudi::PluginService::SetDebug(level) to level= 'PluginDebugLevel':0
ApplicationMgr    SUCCESS 
====================================================================================================================================
                                                   Welcome to ApplicationMgr (GaudiCoreSvc v32r1)
                                          running on lxplus776.cern.ch on Wed Sep  4 16:52:34 2019
====================================================================================================================================
ApplicationMgr       INFO Application Manager Configured successfully
ApplicationMgr       INFO Updating Gaudi::PluginService::SetDebug(level) to level= 'PluginDebugLevel':0[m
StatusCodeSvc        INFO initialize[m
AthDictLoaderSvc     INFO in initialize...[m
AthDictLoaderSvc     INFO acquired Dso-registry[m
ClassIDSvc           INFO  getRegistryEntries: read 3273 CLIDRegistry entries for module ALL[m
CoreDumpSvc          INFO install f-a-t-a-l handler... (flag = -1)[m
CoreDumpSvc          INFO Handling signals: 11(Segmentation fault) 7(Bus error) 4(Illegal instruction) 8(Floating point exception) [m
AthenaEventLoopMgr   INFO Initializing AthenaEventLoopMgr - package version AthenaServices-00-00-00[m
ClassIDSvc           INFO  getRegistryEntries: read 925 CLIDRegistry entries for module ALL[m
WriteDataReentrant   INFO in initialize()[m
StoreGateSvc        DEBUG Property update for OutputLevel : new value = 1[m
StoreGateSvc        DEBUG Service base class initialized successfully[m
StoreGateSvc      VERBOSE Initializing StoreGateSvc - package version StoreGate-00-00-00[m
StoreGateSvc        DEBUG trying to create store SGImplSvc/StoreGateSvc_Impl[m
StoreGateSvc_Impl   DEBUG Property update for OutputLevel : new value = 1[m
StoreGateSvc_Impl VERBOSE Initializing StoreGateSvc_Impl - package version StoreGate-00-00-00[m
StoreGateSvc_Impl   DEBUG Service base class initialized successfully[m
StoreGateSvc_Impl VERBOSE ServiceLocatorHelper::service: found service EventPersistencySvc[m
StoreGateSvc_Impl VERBOSE ServiceLocatorHelper::service: found service ClassIDSvc[m
ClassIDSvc           INFO  getRegistryEntries: read 423 CLIDRegistry entries for module ALL[m
ReadDataReentrant    INFO in initialize()[m
[93;1mHistogramPersis...WARNING Histograms saving not required.[m
ApplicationMgr       INFO Application Manager Initialized successfully[m
ApplicationMgr       INFO Application Manager Started successfully[m
AthenaEventLoopMgr   INFO   ===>>>  start of run 1    <<<===[m
AthenaEventLoopMgr   INFO   ===>>>  start processing event #1, run #1 0 events processed so far  <<<===[m
WriteDataReentrant   INFO in execute()[m
[93;1mWriteDataReentrantWARNING we expect  an error message here[m
[93;1mStoreGateSvc_Impl WARNING  setupProxy:: error setting up proxy for key dobj and clid 8000
 Pre-existing valid DataProxy @0x11776b40 found in Store for key dobj with clid 8000[m
[93;1mStoreGateSvc_Impl WARNING record_impl: Problem setting up the proxy for object @0x11294b80
 recorded with key dobj of type MyDataObj (CLID 8000) in DataObject @0x1344f270[m
[97;101;1mVarHandle(Store...  ERROR FILE:LINE (StatusCode SG::VarHandleBase::record_impl(std::unique_ptr<DataObject>, void*, bool, bool)): code FAILURE: recordObject failed[m
[93;1mWriteDataReentrantWARNING end of error message[m
WriteDataReentrant   INFO  registered all data objects[m
WriteDataReentrant   INFO  StoreGate structure before returning from execute 
<<<<<<<<<<<<<<<<< Data Store Dump >>>>>>>>>>>>>>> 
SGImplSvc(StoreGateSvc_Impl)::dump():
Found 2 proxies for ClassID 1434 (BaseClass): 
 flags: (  valid, UNLOCKED,  reset) --- data: 0x1344e690 --- key: WriteDataReentrant
 flags: (  valid, UNLOCKED,  reset) --- data: 0x1344f220 --- key: dobj
Found 1 proxy for ClassID 2101 (EventInfo): 
 flags: (  valid, UNLOCKED,  reset) --- data: 0x1344e870 --- key: 
Found 6 proxies for ClassID 8000 (MyDataObj): 
 flags: (  valid, UNLOCKED,  reset) --- data: 0x1344e690 --- key: WriteDataReentrant
 flags: (  valid, UNLOCKED,  reset) --- data: 0x1344f220 --- key: dobj
 flags: (  valid, UNLOCKED,  reset) --- data: 0x1344f950 --- key: dobj2
 flags: (  valid,   locked,  reset) --- data: 0x1344e640 --- key: x1
 flags: (  valid,   locked,  reset) --- data: 0x1344e460 --- key: x2
 flags: (  valid,   locked,  reset) --- data: 0x1344e370 --- key: x3
Found 1 proxy for ClassID 9967 (DataVector<MyContObj>): 
 flags: (  valid,   locked,  reset) --- data: 0x13ca6cb0 --- key: cobj
Found 1 proxy for ClassID 9983 (std::vector< ElementLink<MapStringFloat> >): 
 flags: (  valid, UNLOCKED,  reset) --- data: 0x1344f810 --- key: linkvec
Found 1 proxy for ClassID 9984 (std::list< ElementLink< std::vector<float> > >): 
 flags: (  valid, UNLOCKED,  reset) --- data: 0x1344f8b0 --- key: WriteDataReentrant
Found 1 proxy for ClassID 33347479 (SG::AuxVectorBase): 
 flags: (  valid,   locked,  reset) --- data: 0x13ca6cb0 --- key: cobj
Found 1 proxy for ClassID 55596997 (EventContext): 
 flags: (  valid, UNLOCKED,  reset) --- data: 0x1344f040 --- key: EventContext
Found 1 proxy for ClassID 193758082 (std::map<std::string,float>): 
 flags: (  valid,   locked,  reset) --- data: 0x1344ed70 --- key: mkey
Found 1 proxy for ClassID 202242136 (std::vector<float>): 
 flags: (  valid, UNLOCKED,  reset) --- data: 0x1344fae0 --- key: vFloat
Found 1 proxy for ClassID 289238765 (TestDataObject): 
 flags: (  valid,   locked,  reset) --- data: 0x1344e820 --- key: testobj
<<<<<<<<<<<<<<<<<<<<<<<<<>>>>>>>>>>>>>>>>>>>>>>>> 
[m
ReadDataReentrant    INFO in execute()[m
ReadDataReentrant    INFO Time: 11.3  ID: 132[m
ReadDataReentrant    INFO Time: 41.7  ID: 291[m
ReadDataReentrant    INFO pVec [0] = 1[m
ReadDataReentrant    INFO pVec [1] = 2[m
ReadDataReentrant    INFO pVec [2] = 3[m
ReadDataReentrant    INFO ListVecLinks::linked element 1[m
ReadDataReentrant    INFO ListVecLinks::linked element 3[m
ReadDataReentrant    INFO VectorMapLinks::linked element: key uno - value 1 - stored as 0x13ca0d3c[m
ReadDataReentrant    INFO VectorMapLinks::linked element: key due - value 2 - stored as 0x13ca0d7c[m
AthenaEventLoopMgr   INFO   ===>>>  done processing event #1, run #1 1 events processed so far  <<<===[m
StoreGateSvc_Impl   DEBUG Clearing store with forceRemove=0[m
AthenaEventLoopMgr   INFO   ===>>>  start processing event #2, run #1 1 events processed so far  <<<===[m
WriteDataReentrant   INFO in execute()[m
[93;1mWriteDataReentrantWARNING we expect  an error message here[m
[93;1mStoreGateSvc_Impl WARNING  setupProxy:: error setting up proxy for key dobj and clid 8000
 Pre-existing valid DataProxy @0x11776b40 found in Store for key dobj with clid 8000[m
[93;1mStoreGateSvc_Impl WARNING record_impl: Problem setting up the proxy for object @0x11294480
 recorded with key dobj of type MyDataObj (CLID 8000) in DataObject @0x1344ed70[m
[97;101;1mVarHandle(Store...  ERROR FILE:LINE (StatusCode SG::VarHandleBase::record_impl(std::unique_ptr<DataObject>, void*, bool, bool)): code FAILURE: recordObject failed[m
[93;1mWriteDataReentrantWARNING end of error message[m
WriteDataReentrant   INFO  registered all data objects[m
WriteDataReentrant   INFO  StoreGate structure before returning from execute 
<<<<<<<<<<<<<<<<< Data Store Dump >>>>>>>>>>>>>>> 
SGImplSvc(StoreGateSvc_Impl)::dump():
Found 2 proxies for ClassID 1434 (BaseClass): 
 flags: (  valid, UNLOCKED,  reset) --- data: 0x1344f9a0 --- key: WriteDataReentrant
 flags: (  valid, UNLOCKED,  reset) --- data: 0x1344f950 --- key: dobj
Found 1 proxy for ClassID 2101 (EventInfo): 
 flags: (  valid, UNLOCKED,  reset) --- data: 0x1344f810 --- key: 
Found 6 proxies for ClassID 8000 (MyDataObj): 
 flags: (  valid, UNLOCKED,  reset) --- data: 0x1344f9a0 --- key: WriteDataReentrant
 flags: (  valid, UNLOCKED,  reset) --- data: 0x1344f950 --- key: dobj
 flags: (  valid, UNLOCKED,  reset) --- data: 0x1344f040 --- key: dobj2
 flags: (  valid,   locked,  reset) --- data: 0x1344fae0 --- key: x1
 flags: (  valid,   locked,  reset) --- data: 0x1344fb30 --- key: x2
 flags: (  valid,   locked,  reset) --- data: 0x1344e370 --- key: x3
Found 1 proxy for ClassID 9967 (DataVector<MyContObj>): 
 flags: (  valid,   locked,  reset) --- data: 0x13ca6cb0 --- key: cobj
Found 1 proxy for ClassID 9983 (std::vector< ElementLink<MapStringFloat> >): 
 flags: (  valid, UNLOCKED,  reset) --- data: 0x1344f270 --- key: linkvec
Found 1 proxy for ClassID 9984 (std::list< ElementLink< std::vector<float> > >): 
 flags: (  valid, UNLOCKED,  reset) --- data: 0x1344e870 --- key: WriteDataReentrant
Found 1 proxy for ClassID 33347479 (SG::AuxVectorBase): 
 flags: (  valid,   locked,  reset) --- data: 0x13ca6cb0 --- key: cobj
Found 1 proxy for ClassID 55596997 (EventContext): 
 flags: (  valid, UNLOCKED,  reset) --- data: 0x1344f8b0 --- key: EventContext
Found 1 proxy for ClassID 193758082 (std::map<std::string,float>): 
 flags: (  valid,   locked,  reset) --- data: 0x1344e820 --- key: mkey
Found 1 proxy for ClassID 202242136 (std::vector<float>): 
 flags: (  valid, UNLOCKED,  reset) --- data: 0x1344e640 --- key: vFloat
Found 1 proxy for ClassID 289238765 (TestDataObject): 
 flags: (  valid,   locked,  reset) --- data: 0x1344f9f0 --- key: testobj
<<<<<<<<<<<<<<<<<<<<<<<<<>>>>>>>>>>>>>>>>>>>>>>>> 
[m
ReadDataReentrant    INFO in execute()[m
ReadDataReentrant    INFO Time: 11.3  ID: 132[m
ReadDataReentrant    INFO Time: 41.7  ID: 291[m
ReadDataReentrant    INFO pVec [0] = 1[m
ReadDataReentrant    INFO pVec [1] = 2[m
ReadDataReentrant    INFO pVec [2] = 3[m
ReadDataReentrant    INFO ListVecLinks::linked element 1[m
ReadDataReentrant    INFO ListVecLinks::linked element 3[m
ReadDataReentrant    INFO VectorMapLinks::linked element: key uno - value 1 - stored as 0x13ca983c[m
ReadDataReentrant    INFO VectorMapLinks::linked element: key due - value 2 - stored as 0x13ca987c[m
AthenaEventLoopMgr   INFO   ===>>>  done processing event #2, run #1 2 events processed so far  <<<===[m
StoreGateSvc_Impl   DEBUG Clearing store with forceRemove=0[m
AthenaEventLoopMgr   INFO   ===>>>  start processing event #3, run #1 2 events processed so far  <<<===[m
WriteDataReentrant   INFO in execute()[m
[93;1mWriteDataReentrantWARNING we expect  an error message here[m
[93;1mStoreGateSvc_Impl WARNING  setupProxy:: error setting up proxy for key dobj and clid 8000
 Pre-existing valid DataProxy @0x11776b40 found in Store for key dobj with clid 8000[m
[93;1mStoreGateSvc_Impl WARNING record_impl: Problem setting up the proxy for object @0x11294f30
 recorded with key dobj of type MyDataObj (CLID 8000) in DataObject @0x1344e820[m
[97;101;1mVarHandle(Store...  ERROR FILE:LINE (StatusCode SG::VarHandleBase::record_impl(std::unique_ptr<DataObject>, void*, bool, bool)): code FAILURE: recordObject failed[m
[93;1mWriteDataReentrantWARNING end of error message[m
WriteDataReentrant   INFO  registered all data objects[m
WriteDataReentrant   INFO  StoreGate structure before returning from execute 
<<<<<<<<<<<<<<<<< Data Store Dump >>>>>>>>>>>>>>> 
SGImplSvc(StoreGateSvc_Impl)::dump():
Found 2 proxies for ClassID 1434 (BaseClass): 
 flags: (  valid, UNLOCKED,  reset) --- data: 0x1344f220 --- key: WriteDataReentrant
 flags: (  valid, UNLOCKED,  reset) --- data: 0x1344f040 --- key: dobj
Found 1 proxy for ClassID 2101 (EventInfo): 
 flags: (  valid, UNLOCKED,  reset) --- data: 0x1344f270 --- key: 
Found 6 proxies for ClassID 8000 (MyDataObj): 
 flags: (  valid, UNLOCKED,  reset) --- data: 0x1344f220 --- key: WriteDataReentrant
 flags: (  valid, UNLOCKED,  reset) --- data: 0x1344f040 --- key: dobj
 flags: (  valid, UNLOCKED,  reset) --- data: 0x1344f8b0 --- key: dobj2
 flags: (  valid,   locked,  reset) --- data: 0x1344e640 --- key: x1
 flags: (  valid,   locked,  reset) --- data: 0x1344e460 --- key: x2
 flags: (  valid,   locked,  reset) --- data: 0x1344e370 --- key: x3
Found 1 proxy for ClassID 9967 (DataVector<MyContObj>): 
 flags: (  valid,   locked,  reset) --- data: 0x13ca6cb0 --- key: cobj
Found 1 proxy for ClassID 9983 (std::vector< ElementLink<MapStringFloat> >): 
 flags: (  valid, UNLOCKED,  reset) --- data: 0x1344ed70 --- key: linkvec
Found 1 proxy for ClassID 9984 (std::list< ElementLink< std::vector<float> > >): 
 flags: (  valid, UNLOCKED,  reset) --- data: 0x1344f810 --- key: WriteDataReentrant
Found 1 proxy for ClassID 33347479 (SG::AuxVectorBase): 
 flags: (  valid,   locked,  reset) --- data: 0x13ca6cb0 --- key: cobj
Found 1 proxy for ClassID 55596997 (EventContext): 
 flags: (  valid, UNLOCKED,  reset) --- data: 0x1344e870 --- key: EventContext
Found 1 proxy for ClassID 193758082 (std::map<std::string,float>): 
 flags: (  valid,   locked,  reset) --- data: 0x1344f9f0 --- key: mkey
Found 1 proxy for ClassID 202242136 (std::vector<float>): 
 flags: (  valid, UNLOCKED,  reset) --- data: 0x1344fae0 --- key: vFloat
Found 1 proxy for ClassID 289238765 (TestDataObject): 
 flags: (  valid,   locked,  reset) --- data: 0x1344e690 --- key: testobj
<<<<<<<<<<<<<<<<<<<<<<<<<>>>>>>>>>>>>>>>>>>>>>>>> 
[m
ReadDataReentrant    INFO in execute()[m
ReadDataReentrant    INFO Time: 11.3  ID: 132[m
ReadDataReentrant    INFO Time: 41.7  ID: 291[m
ReadDataReentrant    INFO pVec [0] = 1[m
ReadDataReentrant    INFO pVec [1] = 2[m
ReadDataReentrant    INFO pVec [2] = 3[m
ReadDataReentrant    INFO ListVecLinks::linked element 1[m
ReadDataReentrant    INFO ListVecLinks::linked element 3[m
ReadDataReentrant    INFO VectorMapLinks::linked element: key uno - value 1 - stored as 0x13ca0d3c[m
ReadDataReentrant    INFO VectorMapLinks::linked element: key due - value 2 - stored as 0x13ca0d7c[m
AthenaEventLoopMgr   INFO   ===>>>  done processing event #3, run #1 3 events processed so far  <<<===[m
StoreGateSvc_Impl   DEBUG Clearing store with forceRemove=0[m
StoreGateSvc      VERBOSE Stop StoreGateSvc[m
StoreGateSvc      VERBOSE stop: setting service priority to 101 so that event stores get finalized and cleared before other stores[m
ApplicationMgr       INFO Application Manager Stopped successfully[m
IncidentProcAlg1     INFO Finalize[m
WriteDataReentrant   INFO in finalize()[m
ReadDataReentrant    INFO in finalize()[m
IncidentProcAlg2     INFO Finalize[m
StoreGateSvc      VERBOSE Finalizing StoreGateSvc - package version StoreGate-00-00-00[m
StoreGateSvc_Impl VERBOSE Finalizing StoreGateSvc_Impl - package version StoreGate-00-00-00[m
StoreGateSvc_Impl   DEBUG Clearing store with forceRemove=1[m
AthDictLoaderSvc     INFO in finalize...[m
ToolSvc              INFO Removing all tools created by ToolSvc[m
*****Chrono*****     INFO ****************************************************************************************************[m
*****Chrono*****     INFO  The Final CPU consumption ( Chrono ) Table (ordered)[m
*****Chrono*****     INFO ****************************************************************************************************[m
ChronoStatSvc        INFO Time User   : Tot=   60 [ms]                                             #=  1[m
*****Chrono*****     INFO ****************************************************************************************************[m
ChronoStatSvc.f...   INFO  Service finalized successfully [m
ApplicationMgr       INFO Application Manager Finalized successfully[m
ApplicationMgr       INFO Application Manager Terminated successfully[m
Py:Athena            INFO leaving with code 0: "successful run"
